PCBNEW-LibModule-V1  Fri 24 Jul 2015 04:01:53 PM CEST
# encoding utf-8
Units mm
$INDEX
C1V5H
$EndINDEX
$MODULE C1V5H
Po 0 0 0 15 55B24540 00000000 ~~
Li C1V5H
Cd Condensateur e = 1 pas
Kw C
Sc 0
AR /55B1F3E4
Op 0 0 0
T0 -1.27 7.62 0.889 0.889 900 0.127 N V 21 N "C1"
T1 1.27 7.62 0.889 0.889 900 0.127 N V 21 N "22 uF"
DS 0 1.27 -2.54 1.27 0.15 21
DS -2.54 1.27 -2.54 10.16 0.15 21
DS -2.54 10.16 2.54 10.16 0.15 21
DS 2.54 10.16 2.54 1.27 0.15 21
DS 2.54 1.27 0 1.27 0.15 21
DS -1.27 0 -1.27 1.27 0.381 21
DS 1.27 0 1.27 1.27 0.381 21
T2 -1.27 2.54 0.762 0.762 0 0.2032 N V 21 N "+"
$PAD
Sh "1" R 1.397 1.397 0 0 0
Dr 0.8128 0 0
At STD N 00E0FFFF
Ne 2 "N-000004"
Po -1.27 0
$EndPAD
$PAD
Sh "2" C 1.397 1.397 0 0 0
Dr 0.8128 0 0
At STD N 00E0FFFF
Ne 1 "N-000001"
Po 1.27 0
$EndPAD
$SHAPE3D
Na "discret/c_horiz_c1v5.wrl"
Sc 1 1 1
Of 0 0 0
Ro 0 0 0
$EndSHAPE3D
$EndMODULE C1V5H
$EndLIBRARY
