(module C22H (layer F.Cu)
  (at 0 0)
  (fp_text reference C22H (at 6.35 -1.27) (layer F.SilkS)
    (effects (font (size 1 1) (thickness 0.15)))
  )
  (fp_text value VAL** (at 6.35 1.27) (layer F.SilkS)
    (effects (font (size 1 1) (thickness 0.15)))
  )
  (fp_line (start 2.54 -1.27) (end 2.54 -2.54) (layer F.SilkS) (width 0.15))
  (fp_line (start 2.54 -2.54) (end 11.43 -2.54) (layer F.SilkS) (width 0.15))
  (fp_line (start 11.43 -2.54) (end 11.43 2.54) (layer F.SilkS) (width 0.15))
  (fp_line (start 11.43 2.54) (end 2.54 2.54) (layer F.SilkS) (width 0.15))
  (fp_line (start 2.54 2.54) (end 2.54 1.27) (layer F.SilkS) (width 0.15))
  (fp_line (start 0 -1.27) (end 2.54 -1.27) (layer F.SilkS) (width 0.15))
  (fp_line (start 2.54 -1.27) (end 2.54 1.27) (layer F.SilkS) (width 0.15))
  (fp_line (start 2.54 1.27) (end 0 1.27) (layer F.SilkS) (width 0.15))
  (pad 1 thru_hole rect (at 0 1.27) (size 1.5 1.5) (drill 0.6)
    (layers *.Cu *.Mask F.SilkS)
  )
  (pad 2 thru_hole circle (at 0 -1.27) (size 1.5 1.5) (drill 0.6)
    (layers *.Cu *.Mask F.SilkS)
  )
)
